=== Run information ===

Scheme:weka.classifiers.trees.RandomForest -I 500 -K 0 -S 1
Relation:     reductionOut/X_compressed_181_L
Instances:    14332
Attributes:   100
[list of attributes omitted]
Test mode:5-fold cross-validation

=== Classifier model (full training set) ===

Random forest of 500 trees, each constructed while considering 7 random features.
Out of bag error: 0.1086



Time taken to build model: 1003.43 seconds

=== Stratified cross-validation ===
=== Summary ===

Correctly Classified Instances       12856               89.7014 %
Incorrectly Classified Instances      1476               10.2986 %
Kappa statistic                          0.8955
Mean absolute error                      0.0099
Root mean squared error                  0.0598
Relative absolute error                 50.2328 %
Root relative squared error             60.1814 %
Total Number of Instances            14332     

=== Detailed Accuracy By Class ===

               TP Rate   FP Rate   Precision   Recall  F-Measure   ROC Area  Class
                 0.86      0.001      0.872     0.86      0.866      0.984    0
                 0.934     0.001      0.908     0.934     0.921      0.992    1
                 0.948     0          0.982     0.948     0.965      1        2
                 0.94      0.001      0.945     0.94      0.942      0.993    3
                 0.545     0.003      0.653     0.545     0.594      0.99     4
                 0.922     0.002      0.869     0.922     0.895      0.992    5
                 0.891     0          0.933     0.891     0.912      0.99     6
                 0.958     0.001      0.927     0.958     0.943      0.999    7
                 0.956     0.001      0.942     0.956     0.949      0.993    8
                 0.813     0          0.938     0.813     0.871      0.995    9
                 0.819     0          0.931     0.819     0.872      0.997    10
                 0.971     0.001      0.926     0.971     0.948      1        11
                 0.961     0.003      0.828     0.961     0.889      0.995    12
                 0.967     0          0.967     0.967     0.967      0.995    13
                 0.881     0.001      0.92      0.881     0.9        0.998    14
                 0.762     0.002      0.786     0.762     0.773      0.985    15
                 0.896     0.001      0.912     0.896     0.904      0.999    16
                 0.798     0.001      0.832     0.798     0.815      0.988    17
                 0.913     0.001      0.898     0.913     0.906      0.999    18
                 0.96      0.003      0.878     0.96      0.917      0.999    19
                 0.95      0.001      0.917     0.95      0.933      0.999    20
                 0.908     0.001      0.928     0.908     0.918      0.998    21
                 0.892     0.002      0.818     0.892     0.853      0.995    22
                 0.975     0.001      0.952     0.975     0.963      0.999    23
                 0.962     0          0.99      0.962     0.976      0.993    24
                 0.938     0.001      0.938     0.938     0.938      0.995    25
                 0.944     0.001      0.894     0.944     0.918      1        26
                 0.893     0.001      0.873     0.893     0.883      0.994    27
                 0.867     0.001      0.85      0.867     0.858      0.987    28
                 0.956     0          0.947     0.956     0.952      0.992    29
                 0.9       0          0.943     0.9       0.921      0.998    30
                 0.8       0.001      0.842     0.8       0.821      0.996    31
                 0.907     0.001      0.925     0.907     0.916      0.999    32
                 0.776     0.001      0.858     0.776     0.815      0.991    33
                 0.773     0.002      0.779     0.773     0.776      0.991    34
                 0.889     0.001      0.909     0.889     0.899      0.997    35
                 0.956     0.001      0.95      0.956     0.953      0.999    36
                 0.892     0          0.978     0.892     0.933      0.989    37
                 0.938     0          0.946     0.938     0.942      0.998    38
                 0.917     0.001      0.923     0.917     0.92       0.999    39
                 0.645     0.002      0.757     0.645     0.696      0.983    40
                 0.843     0.001      0.89      0.843     0.866      0.997    41
                 0.921     0.001      0.911     0.921     0.916      0.999    42
                 0.93      0.001      0.938     0.93      0.934      0.995    43
                 0.901     0          0.985     0.901     0.941      1        44
                 0.89      0.001      0.913     0.89      0.901      0.991    45
                 0.788     0.002      0.824     0.788     0.806      0.991    46
                 0.92      0.001      0.92      0.92      0.92       0.998    47
                 0.958     0.001      0.926     0.958     0.942      0.999    48
                 0.754     0.001      0.905     0.754     0.823      0.994    49
                 0.949     0.002      0.914     0.949     0.931      0.993    50
                 0.937     0.001      0.937     0.937     0.937      0.999    51
                 0.958     0          0.974     0.958     0.966      0.997    52
                 0.931     0.001      0.931     0.931     0.931      0.99     53
                 0.86      0.001      0.852     0.86      0.856      0.99     54
                 0.934     0          0.977     0.934     0.955      0.996    55
                 0.915     0          0.985     0.915     0.949      0.997    56
                 0.919     0          0.974     0.919     0.946      0.998    57
                 0.937     0.001      0.92      0.937     0.929      1        58
                 0.967     0.001      0.919     0.967     0.943      0.998    59
                 0.932     0.001      0.932     0.932     0.932      0.999    60
                 0.84      0          0.944     0.84      0.889      0.998    61
                 0.825     0.004      0.706     0.825     0.761      0.992    62
                 0.85      0.001      0.881     0.85      0.865      0.998    63
                 0.814     0.001      0.882     0.814     0.847      0.998    64
                 0.989     0          0.949     0.989     0.969      1        65
                 0.889     0.001      0.889     0.889     0.889      0.988    66
                 0.979     0.013      0.853     0.979     0.912      0.995    67
                 0.836     0.001      0.864     0.836     0.85       0.997    68
                 0.778     0.001      0.883     0.778     0.827      0.995    69
                 0.884     0.002      0.853     0.884     0.868      0.996    70
                 0.833     0.001      0.922     0.833     0.876      0.974    71
                 0.904     0.001      0.891     0.904     0.898      0.996    72
                 0.697     0.001      0.894     0.697     0.784      0.986    73
                 0.968     0          0.953     0.968     0.961      1        74
                 0.902     0          0.935     0.902     0.918      0.999    75
                 0.868     0.001      0.897     0.868     0.882      0.991    76
                 0.803     0.002      0.817     0.803     0.81       0.998    77
                 0.902     0          0.965     0.902     0.933      0.986    78
                 0.864     0          0.942     0.864     0.901      0.994    79
                 0.802     0.001      0.84      0.802     0.82       0.995    80
                 0.932     0.001      0.901     0.932     0.916      0.993    81
                 0.957     0          0.974     0.957     0.966      0.994    82
                 0.98      0          0.962     0.98      0.971      1        83
                 0.903     0.001      0.887     0.903     0.895      1        84
                 0.918     0.001      0.926     0.918     0.922      0.996    85
                 0.696     0.001      0.897     0.696     0.784      0.992    86
                 0.96      0.001      0.937     0.96      0.948      1        87
                 0.765     0.002      0.815     0.765     0.789      0.987    88
                 0.978     0.001      0.928     0.978     0.952      0.994    89
                 0.91      0          0.982     0.91      0.945      0.986    90
                 0.937     0.002      0.861     0.937     0.898      0.999    91
                 0.946     0          0.981     0.946     0.964      0.997    92
                 0.885     0.001      0.868     0.885     0.876      0.994    93
                 0.938     0.002      0.869     0.938     0.902      0.997    94
                 0.964     0          0.978     0.964     0.971      0.992    95
                 0.821     0.002      0.8       0.821     0.811      0.994    96
                 0.963     0.001      0.896     0.963     0.928      0.997    97
                 0.625     0.001      0.824     0.625     0.711      0.99     98
                 0.891     0          0.933     0.891     0.912      0.996    99
Weighted Avg.    0.897     0.002      0.898     0.897     0.896      0.995

=== Confusion Matrix ===

   a   b   c   d   e   f   g   h   i   j   k   l   m   n   o   p   q   r   s   t   u   v   w   x   y   z  aa  ab  ac  ad  ae  af  ag  ah  ai  aj  ak  al  am  an  ao  ap  aq  ar  as  at  au  av  aw  ax  ay  az  ba  bb  bc  bd  be  bf  bg  bh  bi  bj  bk  bl  bm  bn  bo  bp  bq  br  bs  bt  bu  bv  bw  bx  by  bz  ca  cb  cc  cd  ce  cf  cg  ch  ci  cj  ck  cl  cm  cn  co  cp  cq  cr  cs  ct  cu  cv   <-- classified as
 129   0   0   0   0   0   0   2   0   0   2   0   0   0   0   1   0   0   0   0   0   0   0   1   0   0   0   1   0   0   0   0   0   0   0   0   0   0   0   0   0   0   0   0   0   1   0   0   0   0   0   0   0   0   1   0   0   0   0   0   0   0   0   0   0   0   0   1   0   0   2   0   0   0   0   0   0   0   0   0   0   0   1   1   0   0   0   0   0   1   0   1   0   0   0   0   0   5   0   0 |   a = 0
   0 197   0   0   0   0   0   0   0   0   0   0   4   0   0   0   0   0   0   3   0   0   0   0   0   0   0   1   0   0   0   0   0   0   0   0   0   0   0   0   0   0   0   0   0   0   0   1   0   0   0   0   0   0   0   0   0   0   0   0   0   0   0   0   0   1   1   0   0   0   0   0   1   0   0   0   0   0   0   0   0   1   0   0   0   0   0   0   0   0   0   0   0   0   0   0   1   0   0   0 |   b = 1
   0   1 109   0   0   0   0   0   0   0   0   0   0   0   0   0   0   0   0   0   0   0   0   0   0   0   0   0   0   0   0   0   0   0   0   0   0   0   0   0   0   0   0   0   0   0   0   0   0   0   0   0   0   0   0   0   0   0   0   0   0   0   0   0   0   0   1   4   0   0   0   0   0   0   0   0   0   0   0   0   0   0   0   0   0   0   0   0   0   0   0   0   0   0   0   0   0   0   0   0 |   c = 2
   0   0   0 188   0   0   0   0   0   0   0   0   0   0   0   0   0   1   0   0   0   0   0   0   0   0   0   0   0   0   0   0   0   0   0   0   0   0   0   0   0   1   0   0   0   0   0   0   0   0   1   0   0   0   0   0   0   0   0   1   0   0   0   0   0   0   0   1   0   1   0   0   0   0   0   0   0   0   0   1   3   0   0   0   0   0   0   0   0   0   0   2   0   0   0   0   0   0   0   0 |   d = 3
   0   0   0   0  79   0   0   0   0   2   0   0   1   0   1   0   1   0   4   7   2   0   1   0   0   0   0   0   0   0   0   0   0   1   1   2   0   0   2   1   0   2   0   0   0   0   3   0   0   0   0   0   0   0   2   0   0   0   0   1   0   0   6   1   0   0   0  13   0   2   0   0   0   2   0   1   0   1   0   0   3   0   0   0   0   0   0   0   0   0   0   0   0   3   0   0   0   0   0   0 |   e = 4
   0   0   0   1   0 213   0   0   0   0   0   0   1   1   0   0   0   1   0   0   0   1   0   0   0   0   0   1   0   0   0   0   0   0   1   0   0   0   0   0   0   0   0   0   0   0   0   0   0   3   0   0   0   0   0   0   0   1   0   0   0   0   2   0   0   0   0   0   3   0   0   0   0   0   0   0   0   0   0   0   0   0   0   0   0   0   1   0   0   0   0   0   0   0   1   0   0   0   0   0 |   f = 5
   0   0   0   0   0   0  98   0   0   0   0   0   1   0   0   0   0   0   0   1   0   1   0   0   0   0   0   0   0   0   0   1   0   0   0   0   0   0   0   1   1   0   0   0   0   0   0   0   0   0   0   0   0   0   0   0   0   0   0   0   0   0   2   0   0   0   1   1   0   0   0   0   0   0   0   0   0   0   0   0   0   0   0   0   0   0   0   0   0   0   0   1   0   0   1   0   0   0   0   0 |   g = 6
   0   0   0   0   0   0   0 115   0   0   0   0   0   0   0   2   0   0   0   0   0   0   0   0   0   0   0   0   0   0   1   0   0   0   0   0   0   0   0   0   0   0   0   0   0   0   0   0   0   0   0   0   0   0   0   0   0   0   0   0   0   0   0   0   0   0   2   0   0   0   0   0   0   0   0   0   0   0   0   0   0   0   0   0   0   0   0   0   0   0   0   0   0   0   0   0   0   0   0   0 |   h = 7
   0   0   0   0   0   0   0   0 129   0   0   0   0   0   0   0   0   0   0   1   0   0   0   0   0   0   0   0   0   0   0   0   0   0   0   0   0   0   0   0   0   0   0   0   0   0   0   0   0   0   0   0   0   0   0   0   0   0   0   0   2   0   0   0   0   0   0   1   0   0   1   0   0   0   1   0   0   0   0   0   0   0   0   0   0   0   0   0   0   0   0   0   0   0   0   0   0   0   0   0 |   i = 8
   0   0   0   1   3   0   0   0   0  91   0   0   0   0   0   0   0   0   0   1   2   0   0   1   0   1   0   0   0   0   1   0   0   0   0   0   0   0   0   0   1   0   1   0   0   0   0   0   0   0   0   0   0   0   0   0   0   0   0   0   0   0   0   0   0   1   0   1   0   0   0   0   0   0   0   0   0   0   1   1   1   0   0   1   0   1   0   0   1   1   0   0   0   0   0   0   0   0   0   0 |   j = 9
   3   0   0   0   0   0   0   1   0   0  95   0   0   0   0   5   1   0   0   0   0   0   0   0   0   0   0   0   0   0   0   0   0   0   0   1   0   0   0   0   0   0   0   0   0   0   0   0   0   0   0   0   0   0   0   0   0   0   0   0   0   0   0   1   0   0   0   0   0   0   1   1   0   2   0   0   0   0   0   0   0   0   0   0   0   0   0   0   0   2   0   0   0   2   0   0   0   1   0   0 |   k = 10
   0   0   0   0   0   0   0   0   0   0   0 100   0   0   0   0   0   0   0   0   0   0   0   0   0   0   0   0   0   0   0   0   0   0   0   0   0   0   0   0   0   0   0   0   0   0   0   1   0   0   0   0   0   0   0   0   0   0   0   0   0   1   0   0   0   0   0   1   0   0   0   0   0   0   0   0   0   0   0   0   0   0   0   0   0   0   0   0   0   0   0   0   0   0   0   0   0   0   0   0 |   l = 11
   0   0   0   0   0   1   1   0   0   0   0   0 173   0   0   0   0   0   0   0   0   0   0   0   0   0   0   0   0   0   0   0   0   0   0   0   0   0   0   0   0   0   0   0   0   0   0   0   0   0   0   0   0   0   0   0   0   0   3   0   0   0   0   0   0   0   0   1   0   0   0   0   0   0   0   0   0   0   0   0   0   0   0   0   0   1   0   0   0   0   0   0   0   0   0   0   0   0   0   0 |   m = 12
   0   0   0   0   0   1   0   0   1   0   0   0   0 145   0   0   0   0   0   0   0   0   1   0   0   0   0   0   0   0   0   0   0   0   0   0   0   0   0   0   0   0   0   0   0   0   0   0   0   0   0   0   1   0   0   0   0   0   0   0   0   0   0   0   0   0   0   1   0   0   0   0   0   0   0   0   0   0   0   0   0   0   0   0   0   0   0   0   0   0   0   0   0   0   0   0   0   0   0   0 |   n = 13
   2   0   0   0   0   0   0   0   0   0   0   1   0   0 104   0   0   0   0   0   0   0   1   0   0   0   0   0   0   0   0   0   0   0   0   0   0   0   0   0   0   1   0   0   0   0   0   0   0   0   1   0   0   0   0   0   0   0   0   0   0   0   0   0   1   0   1   3   0   0   0   0   0   0   0   0   0   0   0   0   0   0   0   0   0   1   0   1   0   0   0   0   0   0   1   0   0   0   0   0 |   o = 14
   0   0   0   0   1   1   0   0   0   0   0   0   2   0   1  99   1   0   0   2   0   0   1   0   0   0   0   0   0   0   0   0   0   0   1   0   0   0   0   0   0   0   2   0   0   0   0   0   0   0   1   0   0   0   2   0   0   0   0   0   0   0   0   0   2   0   0   7   0   1   0   0   0   0   0   0   0   0   1   0   0   0   0   0   0   0   0   1   1   0   0   0   0   1   2   0   0   0   0   0 |   p = 15
   0   0   0   0   0   0   0   0   0   0   0   0   1   0   0   0 103   0   0   0   0   0   0   0   0   0   0   0   1   0   0   0   0   0   0   0   0   0   0   0   0   0   0   0   0   0   0   0   0   0   0   0   0   0   0   0   0   0   0   0   0   1   0   0   0   0   0   6   0   0   1   0   0   2   0   0   0   0   0   0   0   0   0   0   0   0   0   0   0   0   0   0   0   0   0   0   0   0   0   0 |   q = 16
   0   0   0   1   0   2   0   0   0   0   0   0   0   0   0   0   0  99   1   0   1   0   0   0   0   2   1   1   0   0   0   0   0   0   0   0   0   0   0   0   5   0   0   0   0   0   0   0   0   0   0   0   0   0   2   0   0   0   0   2   0   0   0   0   0   0   1   0   1   1   1   0   0   0   1   0   0   0   0   0   0   0   0   0   0   0   0   0   0   1   0   0   0   0   1   0   0   0   0   0 |   r = 17
   0   0   0   0   2   0   0   0   0   0   0   0   1   0   0   0   0   0 115   0   0   0   0   1   0   0   0   0   0   0   0   0   0   0   0   0   0   0   0   0   0   0   0   0   0   1   0   0   0   0   0   1   0   0   0   0   0   0   0   0   0   0   3   1   0   0   0   0   0   0   0   0   0   0   0   0   0   0   0   0   0   0   0   1   0   0   0   0   0   0   0   0   0   0   0   0   0   0   0   0 |   s = 18
   0   0   0   0   0   0   0   1   0   0   0   0   0   0   0   0   0   0   0 309   0   0   0   0   0   0   0   0   0   0   0   0   0   0   0   0   2   0   0   0   0   0   0   0   0   0   0   0   0   0   0   0   0   0   0   0   0   0   0   0   0   0   4   1   0   0   1   2   0   0   1   0   0   0   1   0   0   0   0   0   0   0   0   0   0   0   0   0   0   0   0   0   0   0   0   0   0   0   0   0 |   t = 19
   0   1   0   0   1   0   0   0   0   0   0   0   0   0   0   0   0   0   0   0 133   0   0   0   0   0   0   0   0   0   0   0   0   1   0   1   0   0   0   0   0   0   0   0   0   0   0   0   0   0   0   0   0   0   0   0   0   0   0   0   0   0   1   0   0   0   0   0   0   0   0   0   0   0   0   0   0   0   0   1   0   0   0   0   0   0   0   0   0   0   0   0   0   1   0   0   0   0   0   0 |   u = 20
   0   0   0   1   0   0   1   0   0   0   0   0   0   0   0   0   0   1   0   0   0 128   1   0   0   1   0   0   0   0   0   1   0   0   0   0   0   0   0   0   0   0   0   0   0   0   0   0   0   0   0   0   0   1   0   0   0   0   0   0   0   0   3   0   0   0   0   1   2   0   0   0   0   0   0   0   0   0   0   0   0   0   0   0   0   0   0   0   0   0   0   0   0   0   0   0   0   0   0   0 |   v = 21
   0   0   1   0   2   0   0   0   0   0   0   0   0   0   0   0   0   0   0   0   0   1  99   0   0   0   1   0   0   0   0   0   0   0   0   0   0   0   0   0   0   0   0   0   0   0   0   0   0   0   0   0   0   0   0   0   0   0   0   0   0   0   0   1   0   0   0   2   0   0   0   0   1   0   0   0   0   0   0   0   0   1   0   0   0   0   0   0   1   0   1   0   0   0   0   0   0   0   0   0 |   w = 22
   0   0   0   0   0   0   0   0   1   0   0   0   1   0   0   0   0   0   0   0   0   0   0 157   0   0   0   0   0   0   0   0   0   0   0   0   1   0   0   0   0   0   0   0   0   0   0   0   0   0   0   0   0   0   0   0   0   0   0   0   0   0   0   0   0   0   0   0   0   0   0   0   0   0   0   0   0   0   0   1   0   0   0   0   0   0   0   0   0   0   0   0   0   0   0   0   0   0   0   0 |   x = 23
   0   0   0   0   0   0   0   0   0   0   0   0   0   0   0   0   0   0   0   0   0   0   0   0 102   0   0   0   0   0   0   0   0   0   0   0   0   0   0   1   0   0   0   0   0   0   0   0   0   0   0   0   0   0   0   0   0   0   0   0   0   0   0   0   0   0   0   0   0   0   0   1   0   0   0   0   0   1   0   0   0   0   0   0   0   0   0   0   0   0   0   0   0   0   1   0   0   0   0   0 |   y = 24
   0   0   0   0   0   0   0   0   0   0   0   0   1   0   0   0   0   0   0   0   0   0   0   0   0 135   1   0   0   0   0   0   1   0   0   0   0   0   0   0   0   0   0   0   0   0   0   0   0   0   0   0   0   0   0   0   0   0   0   1   0   0   2   0   0   0   0   0   0   0   0   0   0   0   0   1   0   0   0   0   0   0   1   0   1   0   0   0   0   0   0   0   0   0   0   0   0   0   0   0 |   z = 25
   0   0   0   0   0   0   0   0   0   0   0   0   4   0   0   0   0   0   0   0   0   0   0   0   0   0 118   0   0   0   0   0   0   0   0   0   0   0   0   0   0   0   0   0   0   0   0   0   0   0   0   0   0   0   0   0   0   0   1   0   0   0   0   0   0   0   0   0   0   0   0   0   0   0   0   0   0   0   2   0   0   0   0   0   0   0   0   0   0   0   0   0   0   0   0   0   0   0   0   0 |  aa = 26
   1   0   0   0   0   0   0   0   0   0   0   0   0   0   0   0   0   0   0   0   0   0   0   0   0   0   0 117   0   0   0   0   0   0   0   0   0   0   0   0   2   0   0   0   0   0   0   0   0   0   0   0   0   1   0   0   0   0   0   1   0   0   0   0   1   0   0   2   2   0   0   0   0   0   0   0   0   0   0   0   0   0   0   0   0   0   1   0   0   1   0   1   0   0   1   0   0   0   0   0 |  ab = 27
   0   2   0   0   0   0   0   0   0   0   0   0   0   0   0   0   0   0   0   0   0   0   0   0   0   0   0   0  91   0   0   0   0   0   1   0   0   0   0   2   0   0   0   0   0   0   0   0   0   0   1   0   0   0   0   0   0   0   0   0   0   0   0   0   0   0   0   1   0   0   0   0   0   0   0   0   5   0   0   1   0   1   0   0   0   0   0   0   0   0   0   0   0   0   0   0   0   0   0   0 |  ac = 28
   0   0   0   0   0   0   0   0   0   0   0   0   0   0   0   0   0   0   0   0   0   0   0   0   0   0   0   0   0 108   0   0   0   0   0   0   0   0   0   0   0   0   0   0   0   0   0   0   0   0   0   0   0   1   0   0   0   0   0   0   0   0   1   0   1   1   0   1   0   0   0   0   0   0   0   0   0   0   0   0   0   0   0   0   0   0   0   0   0   0   0   0   0   0   0   0   0   0   0   0 |  ad = 29
   2   0   0   0   1   0   0   1   0   0   0   0   0   0   0   0   0   2   0   0   0   0   1   0   0   0   0   0   0   0  99   0   0   0   0   0   0   0   0   0   0   0   1   0   0   0   0   0   0   0   0   0   0   0   0   0   0   0   0   0   0   0   0   0   0   0   0   3   0   0   0   0   0   0   0   0   0   0   0   0   0   0   0   0   0   0   0   0   0   0   0   0   0   0   0   0   0   0   0   0 |  ae = 30
   0   0   0   0   1   0   0   0   0   0   0   0   2   0   0   0   0   0   0   0   0   0   0   0   0   0   0   0   0   0   0  96   0   0   0   0   0   0   0   0   0   0   0   0   0   0  12   0   0   0   0   0   0   0   0   1   0   0   0   0   0   0   3   1   0   0   1   1   0   0   0   0   0   0   1   0   0   0   0   0   0   0   0   0   0   0   0   0   0   0   0   1   0   0   0   0   0   0   0   0 |  af = 31
   0   0   0   0   0   0   0   0   0   0   0   0   1   0   0   0   0   0   0   0   0   0   0   0   0   0   2   0   0   0   0   0  98   0   0   0   0   0   0   0   0   0   0   1   0   0   0   0   0   0   0   0   0   0   0   0   0   0   0   0   0   0   0   0   0   0   0   2   0   0   0   0   0   0   0   1   0   0   0   0   0   0   0   0   0   0   0   0   0   0   0   0   0   0   0   0   0   2   0   1 |  ag = 32
   0   0   0   0   1   0   0   0   0   0   0   0   0   0   0   0   0   0   1   0   0   0   0   0   0   0   0   0   0   0   1   0   0  97   8   0   0   0   0   0   0   0   0   0   0   5   0   0   0   0   0   0   0   0   0   0   0   0   0   0   0   1   0   0   0   0   0   2   0   0   0   0   3   1   0   0   1   0   0   0   0   0   0   0   0   0   0   0   0   2   0   0   0   2   0   0   0   0   0   0 |  ah = 33
   0   0   0   0   2   1   0   0   0   0   3   0   0   0   0   0   0   0   0   1   0   0   0   0   0   0   0   0   0   0   0   0   0   5 109   0   0   0   0   1   0   0   0   0   0   3   1   0   0   0   1   0   0   0   0   0   0   0   0   0   0   0   0   0   1   0   0   5   0   0   1   1   2   0   0   0   0   0   0   0   0   1   0   0   0   0   0   1   1   0   0   0   0   0   0   0   1   0   0   0 |  ai = 34
   0   0   0   0   1   0   0   0   0   0   0   0   0   0   0   0   0   0   0   0   0   0   0   0   0   0   0   0   0   0   0   0   0   0   1 120   0   1   0   0   0   0   0   1   0   0   0   0   0   0   1   0   0   0   0   0   0   0   0   0   0   0   0   0   0   0   0   6   0   0   1   0   0   0   0   0   0   0   0   0   0   0   0   0   0   0   0   0   1   0   0   0   0   1   0   0   0   0   1   0 |  aj = 35
   0   0   0   0   0   0   0   0   0   0   0   0   0   0   0   0   0   0   0   4   0   0   0   1   0   0   1   0   0   0   0   0   0   0   0   0 172   0   0   0   0   0   0   0   0   0   0   0   0   0   0   0   0   0   0   0   0   0   1   0   0   0   0   0   0   0   1   0   0   0   0   0   0   0   0   0   0   0   0   0   0   0   0   0   0   0   0   0   0   0   0   0   0   0   0   0   0   0   0   0 |  ak = 36
   0   0   0   0   1   0   0   0   2   0   0   0   0   0   0   0   0   0   0   0   0   0   0   0   0   0   0   0   0   0   0   0   0   0   0   1   0  91   0   0   0   0   0   0   0   0   0   0   0   0   0   0   1   0   0   0   0   0   0   0   0   0   0   0   0   0   0   1   0   1   1   0   0   0   0   0   0   2   0   0   0   0   0   0   0   0   0   0   1   0   0   0   0   0   0   0   0   0   0   0 |  al = 37
   0   0   0   0   0   0   0   0   0   0   0   0   0   0   0   0   0   0   0   0   0   0   0   0   0   0   1   0   0   1   0   0   0   0   0   0   0   0 122   0   0   0   2   0   0   0   0   0   0   0   1   0   0   0   0   0   0   0   0   0   0   0   0   0   0   0   0   2   0   0   0   0   0   0   0   0   0   0   0   0   0   0   0   0   0   0   0   0   1   0   0   0   0   0   0   0   0   0   0   0 |  am = 38
   0   2   0   0   1   0   0   0   0   0   0   0   0   0   1   0   0   0   1   1   0   0   0   0   0   0   0   1   2   0   0   0   0   0   0   0   0   0   0 132   0   0   0   0   0   0   0   0   0   0   0   0   0   0   0   0   0   0   0   1   0   0   0   0   0   0   0   0   0   0   0   0   0   0   0   0   0   0   0   0   0   0   0   0   0   1   0   0   0   0   0   0   0   1   0   0   0   0   0   0 |  an = 39
   1   0   0   0   3   2   1   0   0   0   1   0   0   0   0   0   0   8   0   2   0   1   0   0   0   0   0   0   0   0   0   0   0   0   1   0   1   0   1   1  78   0   1   0   0   0   0   0   0   0   1   0   0   0   1   0   0   0   0   2   0   0   3   1   0   0   1   0   0   1   2   0   0   0   0   0   0   0   0   1   1   0   0   0   0   0   0   0   0   0   0   3   0   1   0   0   0   0   1   0 |  ao = 40
   0   0   0   1   1   0   0   0   0   0   0   0   0   0   0   0   0   0   0   1   2   0   1   0   0   0   0   0   0   0   0   0   0   0   0   2   0   0   0   1   0  97   0   0   0   0   1   0   0   0   0   0   0   0   0   0   0   0   0   0   0   0   0   0   0   0   0   4   0   0   0   0   0   0   0   0   0   1   0   0   1   1   1   0   0   0   0   0   0   0   0   0   0   0   0   0   0   0   0   0 |  ap = 41
   0   0   0   0   0   0   1   0   0   0   0   0   0   0   0   0   0   0   0   0   0   0   0   0   0   0   0   0   0   0   0   0   0   0   1   1   0   0   1   0   1   0 164   0   0   0   0   0   1   0   0   1   0   2   0   0   0   0   0   0   0   0   1   0   0   0   0   2   0   0   0   0   0   0   0   0   0   0   0   0   0   0   0   0   0   0   0   0   0   0   0   1   0   1   0   0   0   0   0   0 |  aq = 42
   0   0   0   0   0   0   0   0   0   0   0   0   0   0   0   1   0   0   0   1   0   0   0   0   0   0   0   0   0   0   0   0   1   0   0   1   0   0   0   0   0   0   0 120   0   0   0   0   0   0   0   0   0   0   1   0   0   0   0   0   0   0   0   0   0   0   0   0   0   0   0   0   1   0   0   0   0   0   0   0   0   0   0   0   0   1   0   0   0   0   0   0   0   0   2   0   0   0   0   0 |  ar = 43
   0   0   0   0   0   0   0   0   0   0   0   0   0   0   0   0   0   0   0   0   0   0   0   0   0   0   0   0   0   0   0   0   0   1   0   0   0   0   0   0   0   0   0   0  64   0   0   0   0   0   0   0   0   0   0   0   0   0   0   0   0   0   0   1   0   0   0   0   0   0   0   0   0   0   0   0   0   5   0   0   0   0   0   0   0   0   0   0   0   0   0   0   0   0   0   0   0   0   0   0 |  as = 44
   0   0   0   0   0   0   0   0   0   0   0   0   0   0   0   0   0   0   1   0   0   0   0   0   0   0   0   0   0   0   0   0   0   3   3   0   0   0   0   0   0   0   0   0   0 137   0   0   0   0   0   0   0   1   0   0   0   0   0   0   1   0   0   0   0   0   1   2   0   0   0   0   2   0   0   0   0   0   0   0   0   0   0   0   0   0   0   0   0   2   0   0   0   1   0   0   0   0   0   0 |  at = 45
   0   0   0   0   4   0   0   0   0   0   0   1   0   0   0   1   0   0   0   0   0   0   0   0   0   0   0   0   0   0   0  10   0   0   1   0   0   0   0   0   0   0   0   0   0   0 108   0   0   0   0   0   0   1   0   0   0   0   0   0   0   0   2   0   0   0   1   6   0   0   0   0   0   0   0   0   0   0   0   0   0   0   0   0   0   2   0   0   0   0   0   0   0   0   0   0   0   0   0   0 |  au = 46
   0   1   0   0   0   0   0   0   0   0   0   0   0   0   0   0   0   0   0   0   0   0   0   0   0   0   0   0   0   0   0   0   0   0   0   0   0   0   0   0   0   0   0   0   0   0   0 127   0   0   0   0   0   0   0   0   0   1   0   0   0   0   0   0   0   0   0   0   0   0   0   0   0   0   0   0   0   4   0   0   0   0   0   0   5   0   0   0   0   0   0   0   0   0   0   0   0   0   0   0 |  av = 47
   0   0   0   1   0   0   0   0   0   0   0   0   1   0   0   0   0   0   0   0   0   0   0   0   0   0   0   0   0   0   0   0   0   0   0   0   0   0   0   0   0   0   0   0   0   0   0   0 113   0   0   0   0   0   0   0   0   0   0   0   0   0   0   0   0   0   0   1   0   0   0   0   0   0   0   1   1   0   0   0   0   0   0   0   0   0   0   0   0   0   0   0   0   0   0   0   0   0   0   0 |  aw = 48
   0   0   0   0   0  11   2   0   0   0   0   0   0   0   0   0   0   0   0   0   0   0   0   0   0   0   0   2   0   0   0   0   0   0   0   0   0   0   0   0   3   0   0   0   0   0   0   0   0  86   0   0   0   0   0   0   0   0   0   1   0   0   4   0   0   0   0   1   0   0   0   0   1   0   0   0   0   0   0   0   0   0   0   0   0   0   3   0   0   0   0   0   0   0   0   0   0   0   0   0 |  ax = 49
   1   0   0   0   1   0   0   0   0   0   0   0   0   0   1   1   0   0   0   0   0   0   0   0   0   0   0   0   1   0   0   0   0   0   1   0   0   0   0   0   1   0   0   0   0   0   0   0   0   0 244   0   0   0   0   0   0   0   0   0   0   0   0   0   1   0   0   2   0   0   0   0   0   0   0   0   0   0   0   0   1   0   0   0   0   0   0   0   2   0   0   0   0   0   0   0   0   0   0   0 |  ay = 50
   0   0   0   0   1   0   0   0   0   0   0   0   0   0   0   0   0   0   1   1   0   0   0   0   0   0   0   0   0   0   0   0   0   0   0   0   0   0   0   0   0   0   0   0   0   0   0   0   0   0   0 119   0   0   0   0   0   0   0   0   0   0   2   0   0   0   0   2   0   0   0   0   0   0   0   0   0   0   0   0   0   0   0   0   0   0   0   1   0   0   0   0   0   0   0   0   0   0   0   0 |  az = 51
   0   0   0   1   0   0   0   0   0   0   0   0   0   0   0   0   0   0   0   0   0   0   0   0   0   0   0   0   0   0   0   0   0   1   0   0   0   0   0   0   0   0   0   0   0   0   0   0   0   0   0   0 114   0   0   0   0   0   0   0   0   0   0   0   0   0   0   2   0   0   0   0   0   0   0   0   0   0   0   0   0   0   0   0   0   0   0   0   0   0   0   0   0   0   0   0   0   0   0   1 |  ba = 52
   0   0   0   0   0   1   0   0   0   0   0   0   0   0   0   0   0   0   0   0   0   0   0   0   0   0   0   0   0   1   0   1   0   0   1   0   0   0   0   0   0   0   1   0   0   1   1   0   0   0   0   1   0 135   0   0   0   0   0   0   0   0   0   0   0   0   0   0   1   0   0   0   0   0   0   0   0   1   0   0   0   0   0   0   0   0   0   0   0   0   0   0   0   0   0   0   0   0   0   0 |  bb = 53
   0   0   0   0   1   0   0   0   0   1   0   0   0   0   1   0   0   0   0   0   0   0   0   0   0   1   0   0   0   1   0   0   0   0   0   0   0   0   0   0   0   0   0   0   0   0   0   0   0   0   0   0   0   0  98   0   0   0   0   0   1   0   4   0   0   0   0   0   0   0   0   0   0   0   0   0   1   0   0   0   0   0   0   0   0   0   1   0   0   1   0   0   0   0   2   0   0   0   0   1 |  bc = 54
   0   0   0   0   0   0   0   0   0   0   0   1   0   0   0   0   0   0   0   0   0   0   0   0   0   0   0   0   0   0   1   1   0   0   0   0   0   0   0   0   0   0   0   0   0   0   1   0   0   0   0   0   0   0   0 128   0   0   0   0   0   0   0   0   0   0   0   1   0   0   2   0   0   0   1   0   0   0   0   0   0   0   0   0   0   0   0   0   0   0   0   0   0   0   1   0   0   0   0   0 |  bd = 55
   0   0   0   0   0   0   0   0   0   0   0   0   2   1   0   0   0   0   0   0   0   0   0   0   0   0   0   0   0   0   0   0   0   0   0   0   0   0   0   0   0   0   0   0   0   0   1   0   0   0   0   0   0   0   0   0  65   0   1   0   0   1   0   0   0   0   0   0   0   0   0   0   0   0   0   0   0   0   0   0   0   0   0   0   0   0   0   0   0   0   0   0   0   0   0   0   0   0   0   0 |  be = 56
   0   0   0   0   1   1   0   0   1   0   0   1   0   0   0   0   0   0   0   0   0   0   0   0   0   0   0   0   0   0   0   0   0   0   0   0   0   0   0   0   0   0   0   0   0   0   0   0   0   0   0   2   0   0   0   0   0 114   0   0   0   0   0   0   0   0   0   0   0   0   0   0   0   0   0   1   0   0   0   0   0   0   0   1   0   0   0   1   0   0   0   1   0   0   0   0   0   0   0   0 |  bf = 57
   0   0   0   0   0   0   0   0   0   0   0   0   3   0   0   0   0   0   0   0   0   0   0   0   0   0   2   0   0   0   0   0   1   0   0   0   0   0   0   0   0   0   0   0   0   0   0   0   0   0   0   0   0   0   0   0   0   0 104   0   0   0   0   0   0   0   0   0   0   0   0   0   0   0   0   0   0   0   0   0   0   0   0   0   0   0   0   0   0   0   0   0   0   0   0   0   1   0   0   0 |  bg = 58
   0   0   0   0   1   0   0   0   0   0   0   0   0   0   0   0   0   3   0   0   0   0   0   0   0   0   0   0   0   0   0   0   0   0   0   0   0   0   0   0   0   0   0   0   0   0   0   0   0   0   0   0   0   0   0   0   0   0   0 148   0   0   0   0   0   0   0   0   0   0   0   0   0   0   0   0   0   0   0   0   0   0   0   0   0   0   0   0   0   0   0   1   0   0   0   0   0   0   0   0 |  bh = 59
   0   0   0   0   0   0   0   0   0   0   0   1   0   0   0   0   0   0   0   1   0   0   0   0   0   0   0   0   0   0   0   0   0   0   0   0   0   0   0   0   0   0   0   0   0   1   0   0   0   0   0   0   0   0   1   0   0   0   0   0 109   0   0   0   0   0   0   2   0   0   0   0   0   0   0   0   0   0   0   0   0   0   0   0   0   0   0   0   0   1   1   0   0   0   0   0   0   0   0   0 |  bi = 60
   0   3   0   0   0   0   0   0   1   0   0   0   0   1   0   0   1   0   0   0   0   0   2   1   0   0   0   0   1   0   0   0   1   0   0   0   0   0   0   1   0   0   1   0   0   0   1   0   0   0   0   0   0   0   0   0   0   0   0   0   0  84   0   0   0   0   0   0   0   0   0   0   0   0   0   0   1   0   0   0   0   0   0   0   0   0   0   0   0   0   0   0   0   0   0   0   1   0   0   0 |  bj = 61
   0   0   0   1   1   3   0   0   0   0   0   0   0   0   0   0   0   0   3   3   1   1   0   0   0   1   0   0   0   1   0   1   0   0   0   0   0   0   0   0   0   0   0   0   0   0   0   0   1   1   0   0   0   1   2   0   0   0   0   0   1   0 137   0   0   0   0   1   1   0   2   0   0   0   0   0   0   0   0   0   0   0   0   0   0   0   1   0   0   0   0   1   0   0   0   0   1   0   0   0 |  bk = 62
   0   0   0   0   1   0   0   0   0   1   0   0   0   0   0   1   0   0   0   3   0   0   2   0   0   0   0   0   0   0   0   0   0   0   0   0   0   0   1   0   0   4   0   0   0   0   0   0   0   0   0   1   0   0   0   0   0   0   0   0   0   0   0  96   0   0   0   0   1   0   0   0   0   0   0   0   0   0   0   0   1   0   0   0   0   1   0   0   0   0   0   0   0   0   0   0   0   0   0   0 |  bl = 63
   1   0   0   0   0   0   0   0   0   0   0   0   0   0   0   1   0   0   0   0   0   0   0   0   0   0   0   0   0   0   0   0   0   0   0   0   0   0   0   0   0   0   0   0   0   0   0   0   0   0   3   0   0   0   0   0   0   0   0   0   0   0   1   0 105   0   0  10   0   1   0   0   0   0   0   0   0   0   0   0   2   1   0   0   0   0   0   0   4   0   0   0   0   0   0   0   0   0   0   0 |  bm = 64
   0   1   0   0   0   0   0   0   0   0   0   0   0   0   0   0   0   0   0   0   0   0   0   0   0   0   0   0   0   0   0   0   0   0   0   0   0   0   0   0   0   0   0   0   0   0   0   0   0   0   0   0   0   0   0   0   0   0   0   0   0   0   0   0   0  93   0   0   0   0   0   0   0   0   0   0   0   0   0   0   0   0   0   0   0   0   0   0   0   0   0   0   0   0   0   0   0   0   0   0 |  bn = 65
   0   0   0   0   2   0   0   0   0   0   0   0   0   0   0   0   1   0   0   1   0   0   1   0   0   0   0   0   0   0   0   0   0   0   0   0   1   0   0   0   3   1   0   0   0   0   1   0   0   0   1   0   0   0   0   0   0   0   0   0   0   0   0   1   0   0 160   1   0   0   0   0   0   0   0   0   0   0   0   0   0   2   0   0   0   0   0   0   2   0   0   0   0   0   2   0   0   0   0   0 |  bo = 66
   0   2   0   0   0   0   0   0   0   0   0   0   1   0   0   0   2   0   0   1   0   0   0   0   0   0   0   0   1   1   0   0   0   0   0   0   0   0   0   0   0   0   0   0   0   1   0   0   0   0   2   0   0   0   0   0   0   0   0   0   1   0   0   0   0   1   0 979   0   0   0   1   0   0   0   0   0   1   0   0   0   0   0   0   0   0   0   0   1   0   0   0   0   1   0   0   0   1   1   2 |  bp = 67
   0   0   0   0   0   5   1   0   0   0   0   0   0   0   0   0   0   1   0   0   0   0   0   0   0   0   0   4   0   0   0   0   0   0   0   0   0   0   0   0   0   0   0   0   0   0   0   0   0   1   0   0   0   1   0   0   0   0   0   1   0   0   3   0   0   0   0   0 102   0   0   0   0   0   0   0   0   0   0   0   0   0   0   0   0   0   2   0   0   0   0   1   0   0   0   0   0   0   0   0 |  bq = 68
   1   0   0   0   0   0   0   0   0   0   0   0   1   0   0   5   1   0   0   1   0   0   0   0   0   0   0   0   0   0   0   0   0   0   0   1   0   0   2   0   0   0   0   2   1   0   0   0   0   0   0   0   0   0   0   0   0   0   0   0   0   0   0   0   0   0   0   2   0  98   0   0   1   0   0   0   0   1   0   0   1   0   0   0   0   0   0   0   0   1   0   1   0   0   6   0   0   0   0   0 |  br = 69
   3   0   0   0   0   0   0   0   0   0   0   0   0   0   0   2   0   0   0   2   0   0   0   0   0   0   1   0   0   0   0   0   0   0   0   0   0   0   0   1   0   0   0   0   0   0   0   0   0   0   1   0   0   0   0   0   0   0   0   0   0   0   0   0   1   0   0   3   0   1 145   0   1   0   0   0   0   0   0   0   0   0   0   1   0   0   0   0   1   0   0   1   0   0   0   0   0   0   0   0 |  bs = 70
   0   0   0   0   0   0   0   0   0   0   1   0   0   0   1   2   0   0   0   0   0   0   1   0   0   0   0   0   0   0   1   0   0   1   1   0   0   0   0   0   1   0   0   0   0   0   0   0   0   0   0   0   0   0   0   0   0   0   0   0   0   1   0   0   0   0   0   1   0   1   1  95   0   0   1   0   0   0   0   0   0   0   0   0   0   0   0   0   1   2   0   0   0   1   1   0   0   0   0   0 |  bt = 71
   2   0   0   0   0   0   0   0   0   0   0   0   0   0   0   1   0   0   0   0   0   0   0   0   0   0   0   0   0   0   1   0   0   0   2   1   0   0   0   0   0   0   0   0   0   0   1   0   0   0   0   0   0   0   0   0   0   0   0   0   0   0   1   0   0   0   0   4   0   0   0   0 123   0   0   0   0   0   0   0   0   0   0   0   0   0   0   0   0   0   0   0   0   0   0   0   0   0   0   0 |  bu = 72
   0   1   0   0   3   0   0   0   0   0   0   0   1   0   0   0   0   0   0   1   1   1   0   0   0   0   0   0   0   0   0   0   0   0   1   0   1   0   0   0   1   0   0   0   0   0   0   0   0   1   0   0   0   0   0   0   0   0   1   0   0   0   3   0   0   0   2   5   0   0   0   1   0  76   0   0   0   0   0   0   3   0   0   0   0   0   0   0   0   0   0   1   0   2   1   1   0   0   1   0 |  bv = 73
   0   0   0   0   0   0   0   0   1   0   0   0   0   0   0   0   0   0   0   0   0   0   0   0   0   0   0   0   0   0   0   0   0   0   0   0   0   0   0   0   1   0   0   0   0   0   0   0   0   0   0   0   0   0   0   1   0   0   0   0   0   0   0   0   0   0   0   0   0   0   0   1   0   0 122   0   0   0   0   0   0   0   0   0   0   0   0   0   0   0   0   0   0   0   0   0   0   0   0   0 |  bw = 74
   0   0   0   1   0   0   0   0   0   1   0   0   1   0   0   0   0   0   0   1   0   0   0   0   0   0   0   0   0   0   0   0   1   0   0   0   0   0   0   0   0   0   0   0   0   0   0   0   1   0   0   0   0   0   0   0   0   1   0   0   0   0   0   0   0   0   0   0   0   1   0   0   0   0   0 101   0   0   0   0   0   0   0   0   0   0   0   0   0   0   0   1   1   0   1   0   0   0   0   0 |  bx = 75
   0   0   0   0   0   0   0   0   0   0   0   0   0   0   0   0   0   0   0   0   0   0   0   0   0   0   0   0   9   0   0   0   0   0   0   0   0   0   0   0   0   0   0   0   0   0   0   0   1   0   0   0   0   0   1   0   0   0   0   0   0   0   0   0   0   1   0   1   0   0   0   0   0   0   0   0 105   0   0   0   0   1   0   0   0   0   0   0   0   0   0   0   0   1   0   0   0   1   0   0 |  by = 76
   0   0   0   0   0   0   0   1   0   0   0   0   0   0   0   0   0   0   0   0   1   0   0   0   0   0   0   0   0   0   0   0   0   0   0   0   0   0   0   0   0   2   0   0   0   0   0   6   0   0   0   0   0   1   0   0   0   0   0   0   0   0   1   0   0   0   0   3   0   0   0   0   0   0   0   0   0  98   0   0   0   0   0   0   7   0   0   0   0   0   0   0   0   1   0   1   0   0   0   0 |  bz = 77
   0   0   0   0   0   0   0   1   1   0   0   0   0   0   1   0   0   0   0   0   0   0   0   0   0   0   2   0   0   0   0   0   0   0   0   0   1   0   0   0   0   0   1   0   0   0   0   0   0   0   0   0   0   0   0   0   0   0   0   0   0   0   1   0   0   0   0   3   0   0   0   0   0   0   0   0   0   0 111   0   0   0   0   0   0   0   0   0   0   0   0   0   0   0   0   0   1   0   0   0 |  ca = 78
   0   0   0   1   1   1   0   0   0   0   0   0   0   0   0   0   0   0   1   1   1   0   0   1   0   0   0   0   0   1   0   1   0   0   2   0   0   0   0   0   0   0   3   2   0   0   0   0   0   0   0   0   0   0   0   0   0   0   0   0   0   0   0   0   0   0   0   0   0   0   0   0   0   0   0   0   0   0   0 114   0   0   0   0   0   0   0   0   0   0   0   1   0   0   0   0   0   0   0   1 |  cb = 79
   0   0   0   1   1   0   0   0   0   0   0   1   1   0   0   0   1   0   0   0   0   0   0   1   0   0   0   0   0   0   0   1   0   0   0   1   0   0   0   1   1   1   0   0   0   0   0   0   0   1   1   0   0   0   0   0   0   0   0   0   0   0   1   2   0   0   0   5   0   0   1   0   0   1   0   0   0   0   0   0 105   0   0   0   0   0   0   0   0   0   0   0   0   0   1   0   0   0   2   0 |  cc = 80
   0   5   0   0   0   0   0   0   0   0   0   0   0   0   0   0   0   0   0   0   0   0   0   0   0   0   0   0   0   0   0   0   0   0   0   0   0   0   0   0   0   0   0   0   0   0   0   0   0   0   0   0   0   0   0   0   0   0   0   0   0   0   0   0   1   0   0   0   0   0   0   0   0   0   0   0   1   0   0   0   0 109   0   0   0   0   0   0   0   0   0   0   0   0   0   0   0   0   1   0 |  cd = 81
   2   0   0   0   0   0   0   0   0   0   0   0   0   0   0   0   0   0   0   0   0   0   0   0   0   1   0   0   0   0   0   0   0   0   0   0   0   1   0   0   0   0   0   0   0   0   0   0   0   0   0   0   0   0   0   0   0   0   0   0   0   0   0   0   0   0   0   0   0   0   0   0   0   0   0   0   0   0   0   0   0   1 112   0   0   0   0   0   0   0   0   0   0   0   0   0   0   0   0   0 |  ce = 82
   0   0   0   0   0   0   0   0   0   0   0   0   0   0   0   0   0   0   0   0   0   0   0   1   0   0   0   0   0   0   0   0   0   0   0   0   0   0   0   0   0   0   0   0   0   0   0   0   0   0   0   0   0   0   0   0   0   0   0   0   0   0   0   0   0   0   0   1   0   0   0   0   0   1   0   0   0   0   0   0   0   0   0 150   0   0   0   0   0   0   0   0   0   0   0   0   0   0   0   0 |  cf = 83
   0   0   0   0   0   0   0   0   0   0   0   0   0   0   0   0   0   0   0   0   0   0   0   0   0   1   1   0   0   0   0   0   0   0   0   0   0   0   0   0   0   0   0   0   0   0   0   2   0   0   0   0   0   0   0   0   0   0   0   0   0   0   0   1   0   0   0   0   0   0   0   0   0   0   0   0   0   5   0   0   0   0   0   0 102   0   0   0   0   0   0   0   0   0   0   0   0   1   0   0 |  cg = 84
   0   0   0   0   0   0   0   0   0   0   0   0   1   1   0   0   0   0   0   0   0   0   1   0   0   1   0   0   1   0   0   0   1   0   0   0   0   0   0   0   0   0   0   0   0   0   0   1   0   0   0   0   0   0   0   0   0   0   0   0   0   0   0   0   0   0   0   2   0   0   0   0   0   0   0   0   1   0   0   0   0   0   0   0   0 112   0   0   0   0   0   0   0   0   0   0   0   0   0   0 |  ch = 85
   0   0   0   0   0   2   0   0   0   0   0   0   0   0   0   0   0   2   0   0   0   1   3   0   0   0   0   6   0   0   0   0   0   0   0   0   0   0   0   0   2   0   0   0   0   0   0   0   1   2   0   2   0   0   2   0   0   0   0   2   0   0   3   0   0   0   0   1   4   0   1   0   0   0   0   0   0   0   0   0   0   0   0   0   0   0  78   0   0   0   0   0   0   0   0   0   0   0   0   0 |  ci = 86
   0   0   0   0   0   0   0   0   0   0   0   0   0   0   1   0   0   0   0   0   0   0   0   0   0   0   0   0   0   0   0   0   0   0   0   0   0   0   0   0   0   0   0   0   0   0   0   0   0   0   0   0   0   0   0   0   0   0   0   0   1   0   0   0   0   0   0   1   0   0   0   0   0   0   0   0   0   0   0   0   0   0   0   0   0   0   0 119   0   1   0   0   0   0   0   0   1   0   0   0 |  cj = 87
   0   0   0   0   2   0   0   0   0   0   0   0   0   1   0   1   1   0   0   0   0   0   1   0   0   0   0   0   0   0   0   0   0   0   0   0   0   0   0   0   0   0   0   0   0   0   0   0   0   0   4   0   0   0   0   0   0   0   0   0   0   0   0   0   3   0   1  11   0   0   1   0   0   0   0   0   0   0   0   0   2   0   0   0   0   0   0   1 101   1   0   0   0   0   0   1   0   0   0   0 |  ck = 88
   0   0   0   0   0   0   0   0   0   0   0   0   0   0   0   0   0   0   0   0   0   0   0   0   0   0   0   0   0   0   0   0   0   1   0   0   0   0   0   0   0   0   0   0   0   0   0   0   0   0   0   0   0   0   1   0   0   0   0   0   0   0   0   0   0   0   0   0   0   0   0   1   0   0   0   0   0   0   0   0   0   0   0   0   0   0   0   1   0 220   0   0   0   0   0   0   0   1   0   0 |  cl = 89
   0   0   0   0   0   0   0   0   0   0   0   0   0   0   0   0   0   0   0   1   0   0   1   0   0   0   0   0   0   0   0   0   0   0   0   0   0   0   0   0   0   0   0   0   0   0   0   0   4   0   0   0   0   0   0   0   0   0   0   0   1   0   0   0   0   0   0   2   0   0   1   0   0   0   0   0   0   0   0   0   0   0   0   0   0   0   0   0   1   0 111   0   0   0   0   0   0   0   0   0 |  cm = 90
   0   0   0   0   0   0   0   0   0   0   0   2   0   0   0   1   0   0   0   0   0   2   0   0   0   0   0   0   0   0   0   0   0   0   0   0   0   0   0   0   0   0   1   1   0   0   0   0   0   0   0   0   0   0   0   0   0   0   0   0   0   0   0   0   0   0   0   1   0   0   1   0   0   0   0   0   0   0   0   0   0   0   0   0   0   0   0   0   0   0   0 149   1   0   0   0   0   0   0   0 |  cn = 91
   0   0   0   0   0   0   0   0   0   0   0   0   0   0   0   0   0   0   0   0   0   0   0   0   0   0   0   0   0   0   0   0   0   0   0   0   0   0   0   0   0   0   2   0   0   0   0   0   0   0   0   0   0   0   0   0   0   0   0   0   0   0   0   1   0   0   0   0   0   0   0   0   0   0   0   1   0   0   0   0   0   0   0   0   0   0   0   0   0   0   0   3 159   0   0   0   0   0   1   1 |  co = 92
   0   0   0   0   0   0   0   0   0   1   0   0   0   0   0   0   0   1   0   0   1   0   0   0   0   0   0   0   0   0   0   0   1   2   2   0   1   0   0   0   0   0   0   0   0   0   0   0   0   0   0   0   0   0   1   0   0   0   0   0   0   0   0   0   0   0   0   1   0   0   0   1   2   0   0   0   0   0   0   0   0   1   0   0   0   1   0   0   1   0   0   0   0 131   0   0   0   0   0   0 |  cp = 93
   0   0   0   0   0   0   0   1   0   0   0   0   0   0   1   0   0   0   0   0   0   0   0   0   1   0   0   0   0   0   0   0   0   0   0   0   0   0   0   0   0   0   0   0   0   0   0   0   0   0   0   0   0   0   0   1   0   0   0   0   0   0   0   0   0   0   1   2   0   2   1   0   0   0   0   0   0   0   0   0   0   0   0   1   0   0   0   0   0   0   0   0   0   0 166   0   0   0   0   0 |  cq = 94
   0   0   0   0   0   0   0   0   0   0   0   0   0   0   0   0   0   0   0   0   0   0   0   0   0   0   0   0   0   0   0   0   0   0   0   0   0   0   0   0   1   0   0   0   0   0   0   0   0   0   0   0   0   0   0   0   0   0   0   0   0   0   0   0   1   0   0   0   1   0   0   0   0   0   0   0   0   0   0   1   0   0   0   0   0   0   0   0   1   0   0   0   0   0   0 134   0   0   0   0 |  cr = 95
   0   1   0   0   0   0   0   1   0   0   0   0   1   0   0   0   0   0   0   0   0   0   0   0   0   0   0   0   0   0   0   0   0   0   1   0   1   0   0   0   0   0   0   0   0   0   0   0   0   0   0   0   0   0   0   0   0   0   2   0   0   0   0   0   0   0   0   2   0   0   1   0   0   0   0   1   0   0   0   0   0   0   0   0   0   0   0   1   0   0   0   0   0   0   0   0  92   0   8   0 |  cs = 96
   0   0   0   0   0   0   0   0   0   0   0   0   0   0   0   1   0   0   0   0   0   0   0   0   0   0   0   0   0   0   0   0   0   0   0   0   0   0   0   0   0   0   0   0   0   0   0   0   0   0   0   0   0   0   0   0   0   0   0   0   0   0   0   0   0   0   0   2   0   0   0   0   0   0   0   0   1   0   0   0   0   0   0   0   0   0   0   0   0   0   0   0   0   0   0   0   0 103   0   0 |  ct = 97
   0   0   1   0   1   0   0   0   0   0   0   0   3   0   0   1   0   0   0   1   0   0   3   0   0   0   1   0   0   0   0   0   0   0   0   0   0   0   0   0   0   0   0   0   0   0   0   0   0   0   3   0   0   0   0   0   1   0   0   0   0   0   0   0   0   0   3   6   0   0   0   0   0   0   0   0   0   0   0   0   1   1   0   0   0   0   0   0   2   0   0   0   1   0   0   0  16   0  75   0 |  cu = 98
   0   0   0   0   0   0   0   0   0   0   0   0   0   0   0   0   0   0   0   0   0   1   0   0   0   0   0   0   0   0   0   1   1   0   1   0   0   0   0   0   1   0   0   1   0   0   0   0   0   0   0   0   1   0   0   0   0   0   0   0   0   0   0   0   1   0   0   1   0   0   1   0   0   0   0   0   0   0   0   0   0   0   0   0   0   0   0   0   0   0   0   2   0   0   0   0   0   0   0  98 |  cv = 99

