66
65
67
15
20
69
87
52
21
39
27
79
82
23
79
25
13
53
44
6
62
35
40
25
39
31
6
63
25
71
24
94
50
23
55
64
12
44
46
32
95
38
84
94
55
10
46
21
67
6
85
67
79
72
32
1
78
73
13
15
70
91
14
81
86
42
99
24
19
49
75
90
95
1
42
72
89
97
63
2
88
33
64
72
62
19
4
50
27
9
89
50
22
6
79
48
67
64
59
89
66
65
67
15
20
69
87
52
21
39
27
79
82
23
79
25
13
53
44
6
62
35
40
25
39
31
6
63
25
71
24
94
50
23
55
64
12
44
46
32
95
38
84
94
55
10
46
21
67
6
85
67
79
72
32
1
78
73
13
15
70
91
14
81
86
42
99
24
19
49
75
90
95
1
42
72
89
97
63
2
88
33
64
72
62
19
4
50
27
9
89
50
22
6
79
48
67
64
59
89
34
42
47
67
59
67
70
62
62
72
37
12
3
27
13
97
44
4
81
59
84
2
86
67
34
5
82
39
95
46
22
99
1
51
33
20
31
23
30
45
54
4
92
48
65
80
44
26
62
98
2
4
66
16
1
4
81
73
44
31
67
25
80
75
19
1
67
67
1
93
74
32
61
72
15
30
59
11
14
70
34
89
50
4
74
92
49
27
33
3
41
96
74
70
20
45
20
5
1
89
54
1
78
73
4
99
94
34
90
16
50
35
15
80
28
42
63
51
5
57
51
88
91
34
67
36
85
34
90
13
30
33
20
4
67
15
89
70
4
45
89
59
16
19
34
24
93
5
67
54
41
57
67
35
45
3
82
53
78
83
44
40
77
26
48
78
67
67
92
34
98
13
20
25
67
1
17
50
62
58
12
75
95
13
50
67
28
1
17
61
46
78
88
8
36
99
62
67
60
56
1
15
4
66
39
67
50
1
34
25
70
74
8
5
76
5
19
71
50
13
88
88
2
36
55
67
34
27
34
12
7
21
1
19
68
64
21
88
41
84
4
94
68
4
62
89
66
64
32
85
46
23
9
62
6
57
3
17
99
52
34
8
14
29
89
67
64
66
88
81
19
30
36
45
3
18
36
4
53
99
12
87
49
16
4
0
35
83
92
16
71
34
5
14
39
83
30
88
70
12
38
69
33
75
4
98
22
39
0
62
73
84
26
62
1
47
5
95
96
67
46
59
19
58
54
2
62
81
75
91
53
80
5
47
14
87
19
35
40
42
13
42
19
80
68
42
72
70
34
39
71
81
67
31
23
41
34
9
4
93
9
29
3
53
27
9
67
89
38
87
52
15
89
15
64
6
39
91
47
34
45
22
13
2
80
5
80
70
93
42
91
50
41
72
0
69
45
67
53
13
62
6
7
4
91
50
93
12
49
0
32
18
68
70
70
26
29
38
35
85
55
1
6
5
42
13
12
62
33
67
68
2
88
94
63
67
58
34
13
62
88
38
66
67
15
70
12
41
30
48
36
52
66
72
24
51
70
36
67
36
19
5
62
22
13
71
67
19
91
76
2
45
91
5
5
85
42
94
5
50
11
72
29
93
98
10
24
13
40
83
81
67
89
67
50
17
53
65
27
25
12
19
14
62
82
19
88
62
16
87
82
64
12
34
87
0
20
21
50
23
16
8
30
91
9
38
59
61
59
10
13
87
52
1
45
41
67
57
42
4
4
1
34
77
35
79
64
25
79
52
46
77
82
2
67
48
67
93
82
89
15
91
4
19
28
3
87
64
57
54
64
4
43
59
98
24
72
98
41
48
79
67
54
82
42
88
27
14
67
19
72
89
4
30
80
67
28
39
24
23
72
86
30
4
13
35
88
5
1
98
80
0
92
45
70
50
15
75
22
71
76
60
4
94
72
15
2
95
72
25
59
5
82
5
19
95
21
72
4
82
79
92
67
84
13
13
27
75
42
16
27
94
26
70
79
13
0
28
49
1
64
66
18
67
55
5
3
65
72
62
43
55
77
69
47
67
51
26
68
78
77
40
7
14
71
16
13
92
37
4
91
86
1
90
2
94
79
2
67
58
5
12
83
90
96
8
62
88
19
31
80
12
42
54
11
52
5
94
40
67
27
1
47
51
56
64
47
57
42
35
73
79
67
51
84
54
35
62
38
58
4
52
99
50
23
0
78
3
66
68
21
96
39
14
59
35
98
0
71
46
94
74
84
91
92
67
67
99
0
33
46
95
15
50
91
94
1
55
54
64
66
62
73
69
88
52
35
80
34
93
63
67
6
52
32
25
20
76
80
57
12
93
64
31
83
17
5
36
78
98
33
62
19
94
18
3
47
67
77
67
31
96
27
43
57
19
30
89
70
69
85
35
4
4
34
48
8
38
19
6
12
79
80
39
4
59
29
25
54
12
54
4
63
71
32
51
89
84
85
44
81
33
57
75
17
1
67
50
72
28
7
7
92
23
73
11
19
79
88
66
60
94
50
99
37
67
80
43
35
63
93
61
67
99
4
46
76
90
42
20
38
23
18
14
95
3
37
30
46
19
71
1
32
19
16
51
5
31
38
65
79
97
97
32
76
89
34
16
93
66
62
65
43
50
5
41
38
43
1
78
67
84
98
51
78
45
68
90
78
37
8
73
36
89
59
29
31
54
39
52
85
60
33
60
86
62
99
11
50
19
96
66
46
83
19
13
89
1
23
91
22
62
87
33
23
82
6
0
50
98
53
21
15
67
36
67
74
58
72
25
39
2
5
89
67
48
77
34
96
15
66
18
80
17
83
67
13
91
75
26
42
63
55
5
97
35
67
2
67
61
60
73
36
34
19
39
65
41
53
19
19
12
87
57
93
31
51
80
58
52
43
4
19
70
67
67
4
79
22
67
57
67
89
18
96
1
30
77
8
0
67
7
40
67
30
70
5
4
55
90
49
18
91
12
32
26
84
18
67
36
69
98
89
9
93
67
93
30
79
48
67
83
60
88
18
50
94
14
29
37
36
5
79
17
62
19
36
93
29
21
25
49
34
94
62
69
82
1
83
8
66
25
66
50
7
0
62
20
21
12
48
82
79
58
42
44
66
19
60
33
64
71
34
54
25
29
84
27
67
19
70
40
19
42
19
86
39
60
94
88
1
92
62
88
40
5
5
77
56
97
55
34
55
55
55
3
58
45
42
84
73
6
21
8
30
21
94
66
28
8
34
57
86
67
67
27
53
13
84
70
70
7
43
94
32
52
93
68
4
55
5
36
59
56
53
25
91
23
25
93
30
38
10
50
19
30
59
49
30
37
4
34
74
43
27
79
32
62
3
89
30
73
48
25
46
9
4
69
14
85
75
62
26
67
23
83
26
70
58
85
5
88
62
57
65
1
34
80
24
82
34
34
70
92
94
66
58
77
22
72
5
3
4
48
56
12
25
15
8
4
8
57
68
57
89
49
62
96
21
22
23
39
1
19
38
70
85
14
67
53
25
87
7
83
13
72
51
82
26
88
71
44
67
42
94
20
89
19
9
81
21
47
65
36
59
28
67
5
67
8
17
23
34
19
19
34
60
33
36
17
81
81
89
15
45
18
86
18
5
57
53
34
48
6
22
91
27
69
28
83
51
0
92
9
95
5
32
18
10
62
67
69
78
51
98
67
4
11
26
91
10
78
17
59
41
67
45
67
63
36
70
55
41
94
41
18
47
67
91
67
47
70
21
69
62
1
8
93
64
12
10
45
92
52
91
72
12
30
97
67
63
60
43
19
13
34
79
88
70
0
10
66
80
27
62
32
38
38
81
91
41
93
40
5
27
38
80
13
5
75
63
9
91
34
78
27
67
32
80
34
66
16
66
67
62
79
91
33
92
12
41
51
21
29
63
16
4
36
67
31
88
55
83
57
20
67
4
26
23
80
15
47
37
92
26
22
26
81
89
61
36
19
67
89
29
39
42
28
5
45
18
98
12
38
90
67
24
81
4
54
91
27
20
67
66
37
64
0
95
10
19
83
92
50
15
12
62
25
78
50
78
67
3
20
76
14
64
91
31
77
78
94
66
44
23
25
19
33
34
40
52
4
67
73
72
57
67
91
33
87
10
23
71
80
34
80
61
27
69
84
45
59
75
62
27
26
95
45
19
33
95
83
56
3
36
27
2
46
66
13
8
55
20
60
51
39
83
39
19
64
63
86
54
52
72
34
83
90
57
67
81
62
2
63
90
61
68
12
77
83
73
36
77
5
73
70
14
19
80
43
98
67
88
67
38
0
94
81
78
74
58
78
97
62
19
15
53
0
12
66
62
55
38
12
7
26
84
5
50
68
67
53
76
1
4
91
36
93
4
69
4
54
43
17
25
0
83
79
77
72
19
66
42
55
19
24
36
22
39
2
55
82
81
0
6
11
23
37
66
53
6
33
31
91
24
93
95
5
67
67
27
22
4
25
67
64
83
52
93
94
71
42
4
40
8
19
6
50
54
14
32
79
5
0
92
94
93
84
0
65
89
28
87
63
17
43
50
4
12
48
85
3
99
94
89
67
1
2
90
67
19
79
83
62
7
1
67
24
76
6
91
8
84
93
67
48
10
3
72
4
43
17
61
89
59
95
8
2
93
73
50
96
67
67
7
19
49
47
56
36
36
25
80
89
74
58
90
63
1
97
19
22
67
3
28
71
50
10
17
72
8
44
46
78
81
62
37
71
27
75
90
85
33
44
16
27
27
94
1
68
81
53
20
53
77
3
78
17
38
55
34
37
22
88
1
20
67
85
38
1
63
67
22
53
55
50
13
51
11
91
86
30
41
70
65
50
50
30
33
46
40
97
33
58
29
4
70
28
82
9
56
21
98
52
60
6
23
5
77
9
36
4
67
80
5
15
6
67
14
0
23
50
13
32
4
89
68
62
71
16
62
85
29
4
59
10
5
73
76
42
49
29
12
76
12
39
72
74
66
4
86
63
83
31
50
90
53
93
31
67
91
26
55
64
88
50
76
61
17
69
92
74
67
31
23
15
72
45
85
66
62
93
94
20
23
64
27
48
75
99
67
62
4
19
91
97
0
39
79
28
25
89
73
77
25
87
92
29
42
2
58
68
39
95
86
80
84
51
50
47
74
21
49
83
15
89
3
88
5
19
99
15
39
72
34
20
72
28
65
84
56
66
62
78
5
50
58
15
23
61
66
62
18
53
85
46
51
65
90
62
91
97
30
67
33
90
95
64
67
67
39
13
4
10
34
89
5
21
36
73
55
15
39
50
39
53
12
9
97
89
19
63
50
68
62
83
60
20
25
67
23
10
2
64
59
40
69
18
19
3
78
80
67
17
32
89
5
71
29
7
19
27
93
3
62
40
96
83
67
53
73
95
4
70
50
71
34
15
3
37
47
0
15
88
11
56
41
89
41
25
14
70
39
67
38
11
4
67
87
66
34
24
44
12
67
17
47
64
85
37
1
39
89
50
54
37
50
37
15
67
97
31
5
4
27
19
61
61
90
7
3
24
6
46
91
15
29
66
53
81
97
1
9
83
98
96
6
96
33
45
73
72
7
67
25
73
82
79
93
35
89
25
97
46
4
69
85
76
14
5
98
19
37
19
54
12
18
90
98
59
94
75
80
5
63
79
19
29
49
97
93
47
95
3
55
60
42
92
38
22
58
22
9
69
29
65
19
94
93
39
45
71
5
95
50
13
83
69
78
67
64
72
94
81
70
4
26
91
89
89
59
31
91
48
49
69
39
54
27
2
63
77
99
38
3
20
95
49
76
47
87
10
79
31
18
98
5
19
22
84
93
88
36
66
60
4
32
18
64
50
95
83
78
90
49
95
10
47
1
90
99
0
15
73
50
37
46
37
11
69
50
74
93
71
18
28
3
5
44
55
8
22
89
90
83
76
83
21
35
53
11
67
75
2
27
67
5
5
88
62
69
28
34
50
36
67
35
98
5
53
84
13
43
64
41
94
3
23
46
5
17
36
84
25
3
54
22
19
67
80
43
60
60
70
17
34
76
35
38
66
12
4
77
82
98
62
48
19
11
63
89
40
29
81
78
5
42
57
22
20
3
52
6
1
33
83
76
22
17
66
99
53
39
82
29
8
92
67
71
62
94
24
60
67
80
82
45
10
54
15
12
36
76
41
42
54
5
80
89
72
11
5
34
35
68
66
96
67
10
59
91
41
72
80
67
83
22
67
7
70
46
50
52
31
33
31
14
36
75
15
82
52
89
70
28
19
91
9
33
67
31
15
76
11
89
11
80
9
80
15
67
70
72
70
72
73
55
2
79
5
89
63
12
67
91
0
23
8
24
40
58
28
64
28
16
47
65
91
34
4
23
26
47
92
47
62
4
2
28
42
55
59
24
66
38
18
34
13
23
88
12
78
59
1
9
50
5
15
67
71
30
97
5
44
21
90
36
0
80
91
58
21
37
81
33
40
19
62
36
78
68
45
84
62
4
14
67
49
17
66
22
67
1
45
28
2
8
49
85
55
35
70
50
37
4
91
54
84
98
14
74
43
48
29
45
11
83
51
34
38
34
23
66
71
77
85
5
96
91
97
47
62
34
1
11
12
36
24
4
51
81
77
97
23
3
43
82
71
90
42
97
50
67
28
73
31
15
92
15
93
70
50
59
20
40
90
47
67
50
95
77
62
71
66
92
59
1
2
12
59
45
70
12
94
46
93
67
3
72
19
67
87
99
77
61
5
7
67
21
90
64
10
59
64
13
19
87
65
64
19
8
8
19
0
77
51
41
5
85
4
26
62
38
44
84
42
67
72
1
19
55
52
28
8
49
11
41
92
83
34
26
39
70
54
46
67
60
4
67
91
23
48
24
69
36
31
87
79
81
0
67
5
12
15
34
43
87
57
77
45
55
19
67
91
16
4
19
86
30
42
21
92
15
45
70
58
45
19
77
37
18
98
55
45
67
50
51
79
85
21
39
73
12
38
66
62
41
16
63
67
53
89
67
88
89
81
25
68
77
34
66
79
95
90
33
0
17
67
83
53
89
8
89
92
4
93
13
13
4
67
85
66
17
95
61
1
67
74
5
67
73
4
48
5
68
94
19
51
43
62
8
26
16
40
4
51
31
15
80
3
46
91
54
16
26
67
22
52
53
36
42
5
19
97
3
53
46
93
95
50
20
66
73
70
43
3
35
6
4
65
12
89
70
35
42
90
16
54
67
46
3
66
70
12
32
75
96
61
19
43
45
62
47
66
58
38
54
22
83
54
70
27
76
71
34
55
52
30
26
43
50
90
21
16
12
43
56
5
67
84
4
6
53
67
69
26
67
37
36
81
96
76
53
51
58
76
40
67
56
89
94
52
97
87
3
19
96
4
15
88
45
77
97
79
21
26
91
57
62
62
93
82
57
59
70
15
19
31
20
84
70
34
8
15
67
67
93
68
9
90
5
19
34
62
74
21
0
76
41
13
1
13
85
40
78
36
4
94
49
19
18
41
96
35
35
43
10
14
79
5
16
75
70
67
57
67
61
5
62
50
59
34
22
33
2
75
4
23
43
17
67
19
16
93
45
35
69
92
31
72
42
91
94
67
81
11
15
93
96
59
5
67
4
35
34
67
72
87
59
94
85
70
62
79
44
61
50
88
7
67
66
88
86
77
19
53
68
42
21
90
1
16
95
72
32
78
4
6
67
65
4
0
26
66
90
86
20
68
5
5
78
95
98
33
6
73
89
6
66
46
77
47
67
8
92
29
67
89
61
35
78
70
67
49
30
64
94
31
89
29
80
63
91
55
54
39
0
4
87
7
15
21
75
17
90
63
57
19
54
69
67
34
8
4
47
89
67
44
37
87
64
82
89
78
81
50
37
74
8
72
17
7
31
88
67
85
56
67
66
60
59
15
4
34
18
89
4
1
17
52
99
37
96
26
67
97
79
42
52
4
4
62
4
97
82
67
18
43
77
12
62
22
90
19
19
99
23
34
35
42
74
76
14
31
49
92
82
3
4
5
17
55
15
12
77
71
93
75
72
20
72
94
6
0
62
35
9
94
42
94
49
35
31
12
62
67
94
99
93
63
67
96
68
22
5
86
12
34
85
27
55
15
66
12
13
59
50
39
80
62
42
58
5
88
31
65
64
1
60
11
4
84
34
34
4
12
30
12
63
67
50
50
74
78
14
19
81
72
68
65
28
5
83
12
19
25
50
67
58
35
67
70
67
52
55
96
67
25
52
88
31
88
24
80
12
0
68
22
8
31
16
14
6
34
34
77
34
70
67
76
69
5
41
62
67
72
19
3
12
50
67
68
14
27
83
80
94
33
67
14
95
96
91
58
52
5
62
67
65
35
64
20
2
5
58
19
79
22
15
18
93
79
67
24
66
80
43
90
68
19
67
82
31
36
71
59
81
64
18
39
90
19
17
19
52
20
15
3
5
40
66
20
34
13
75
4
67
4
3
47
1
53
12
38
77
89
81
89
23
15
67
78
67
99
70
73
28
66
58
79
33
72
59
19
62
22
22
42
49
96
50
89
57
73
31
29
67
83
56
36
30
39
77
1
47
93
4
26
53
4
22
42
21
9
53
42
4
20
13
59
5
22
67
67
23
10
4
4
30
8
21
77
88
3
34
84
80
50
83
79
34
39
86
36
7
88
38
5
93
17
93
34
82
67
5
69
50
81
4
39
82
27
59
70
50
85
99
88
48
29
53
34
5
4
14
19
14
67
67
51
27
67
24
46
87
13
36
3
89
6
77
40
99
24
59
18
14
4
47
3
27
3
53
60
87
67
83
19
13
93
67
47
67
93
52
19
94
1
36
45
46
79
89
74
72
87
85
19
49
41
63
65
67
45
69
8
19
62
87
35
7
38
49
40
57
16
17
22
67
54
17
56
67
65
93
51
19
50
96
91
82
51
87
99
62
1
93
82
54
29
67
79
60
20
43
5
60
20
62
50
19
92
91
70
12
4
34
7
12
72
67
18
59
26
20
81
47
60
1
52
94
13
4
1
3
50
30
70
22
39
34
64
62
3
31
3
2
67
81
46
57
62
95
99
23
50
36
48
38
87
89
55
36
61
20
20
21
89
74
67
18
3
19
2
53
72
6
57
46
15
74
67
4
4
36
98
19
61
9
89
67
67
67
56
50
53
36
54
49
19
42
4
42
44
19
11
4
94
97
67
49
97
75
97
2
21
19
54
75
84
87
63
67
67
82
81
75
6
1
54
82
14
36
8
5
4
45
71
26
69
16
4
9
73
96
56
69
40
66
50
5
61
19
23
34
67
38
78
11
43
62
19
56
98
82
59
67
15
93
20
67
57
20
83
96
61
37
31
83
88
12
26
67
53
8
74
89
15
97
63
28
36
67
67
19
7
12
62
62
14
48
33
95
91
25
10
66
92
11
22
55
93
12
43
93
64
90
93
38
95
47
24
29
67
32
83
6
31
10
69
33
47
4
30
67
91
6
11
4
4
3
15
19
95
64
69
0
19
59
49
27
31
23
34
90
1
25
83
61
4
5
70
26
0
19
27
17
2
78
47
25
67
42
66
66
21
38
85
63
37
1
67
20
67
17
53
70
13
12
53
51
21
9
16
5
81
43
53
2
24
55
19
34
69
64
93
74
71
76
23
40
42
70
73
5
32
4
68
16
87
25
83
73
16
77
85
66
9
1
29
93
31
94
6
94
22
80
5
93
67
12
55
20
31
21
84
59
64
77
96
67
4
13
45
5
48
98
20
15
25
91
5
21
53
78
29
26
20
49
86
4
83
67
25
22
54
16
64
20
34
98
49
48
1
36
89
23
10
88
69
59
58
54
73
70
77
4
14
67
19
19
39
57
92
82
96
34
90
71
83
83
2
80
20
28
79
80
41
74
87
7
30
4
31
50
67
56
92
93
85
93
41
4
22
11
36
10
64
94
64
60
12
93
39
28
32
88
44
4
95
85
67
67
0
53
92
65
61
71
95
74
26
46
39
93
66
98
84
76
35
86
12
48
93
91
19
84
46
17
87
59
17
47
19
12
1
64
69
33
92
59
12
94
77
31
46
25
6
63
19
19
95
96
50
97
59
92
20
20
15
47
4
39
15
80
36
16
67
91
70
15
67
26
52
80
93
46
19
43
13
83
67
59
19
92
85
67
29
34
75
19
15
71
74
67
68
5
59
19
74
66
69
8
21
67
36
51
27
72
74
53
91
44
3
87
10
48
50
20
91
41
6
4
26
94
25
4
45
43
66
67
70
50
73
70
88
14
89
18
1
67
41
4
5
64
10
91
91
62
73
94
53
91
67
47
0
55
1
7
76
5
40
62
67
67
50
36
57
67
27
23
90
50
33
70
88
42
77
30
19
39
33
66
75
74
87
66
42
67
48
70
62
41
53
98
69
57
28
47
5
32
0
67
36
65
81
53
34
20
80
34
4
34
95
41
45
61
38
92
81
85
49
43
98
30
49
55
73
4
66
87
50
97
67
67
80
14
67
6
85
67
85
31
1
69
27
85
67
72
89
67
80
60
93
68
5
62
61
50
82
90
67
96
48
80
77
9
56
61
8
57
4
5
62
97
56
95
82
66
88
59
75
3
50
70
88
70
5
87
4
80
94
72
30
83
13
67
16
75
71
78
19
11
97
29
33
27
42
53
11
58
62
13
42
24
25
17
17
91
50
8
88
77
20
27
63
9
78
54
91
40
31
95
67
7
10
66
31
24
40
67
5
38
27
12
93
12
12
74
88
3
68
75
28
99
47
67
39
93
23
67
99
2
68
67
68
8
16
67
50
34
43
92
1
3
6
42
4
20
84
4
21
93
91
28
88
97
87
0
22
41
15
94
1
68
62
72
40
50
89
94
67
65
15
75
70
5
13
26
94
99
1
39
64
89
93
95
50
19
22
62
67
52
4
67
30
3
70
21
80
7
85
46
34
29
88
46
62
3
67
10
13
75
67
72
19
78
88
3
32
19
1
32
70
25
51
98
96
41
67
15
67
79
85
26
79
15
96
4
19
67
89
36
80
89
69
52
19
45
14
67
24
64
80
8
75
45
20
34
86
84
34
8
0
99
66
51
67
36
88
16
85
91
90
97
66
36
94
20
80
88
95
49
69
62
37
67
1
67
3
88
50
59
36
78
89
21
80
27
67
30
93
19
91
11
21
29
62
25
47
67
24
44
87
38
64
62
85
67
89
36
72
91
46
9
20
68
63
83
42
63
70
72
38
38
91
41
72
9
86
67
21
86
43
75
62
23
22
67
75
15
26
42
3
21
12
87
57
75
92
67
97
40
1
62
47
91
6
8
4
4
5
94
5
16
22
70
60
35
83
28
82
19
40
47
79
30
31
31
79
24
91
62
82
72
99
32
1
96
3
82
67
4
97
38
19
1
6
60
4
17
81
73
42
18
39
41
4
69
42
34
69
19
59
20
35
4
67
29
30
67
11
5
38
57
5
2
67
77
66
0
36
27
29
46
80
39
89
67
70
58
3
10
55
77
13
5
96
62
67
46
54
19
84
51
17
18
3
81
70
24
19
62
97
49
0
11
71
77
39
15
24
48
75
14
47
3
65
67
4
67
40
20
20
67
73
34
62
90
89
48
50
1
85
82
73
8
36
11
57
10
31
73
17
88
66
69
89
22
26
65
34
67
4
93
16
67
2
67
72
28
26
9
69
54
94
35
8
36
72
62
94
40
54
52
15
49
66
20
11
66
60
48
1
94
12
32
70
47
99
17
3
99
34
15
19
94
91
50
65
67
16
66
98
66
13
5
52
83
92
35
83
19
77
20
55
37
90
29
24
18
77
26
19
6
75
92
69
78
5
30
34
18
21
89
26
15
91
46
29
52
83
7
86
27
0
59
67
64
70
1
83
40
94
18
34
8
59
39
19
26
36
15
35
48
1
15
67
5
60
19
11
4
93
70
91
95
60
67
76
27
67
6
67
4
19
76
5
12
22
88
9
5
62
67
67
40
55
55
6
79
21
2
71
15
36
19
88
75
37
98
76
88
85
80
13
32
27
45
65
5
86
95
18
48
67
50
79
76
75
20
75
32
19
8
23
94
77
95
37
67
46
67
12
39
82
40
71
9
98
24
27
19
74
3
17
91
50
65
39
42
56
60
55
12
5
81
90
57
36
4
69
67
51
89
15
49
69
12
24
15
17
67
67
67
57
84
36
21
8
15
28
27
20
87
52
24
91
63
5
39
4
10
79
64
30
98
80
5
47
15
72
85
29
74
53
76
67
0
17
32
70
18
66
88
41
49
91
35
11
66
36
83
91
67
99
93
97
59
11
56
51
46
8
7
83
35
3
67
84
94
67
78
50
87
28
14
92
65
74
36
50
50
25
21
4
55
19
21
56
15
32
94
58
25
47
50
29
60
41
28
67
62
4
0
94
71
50
35
59
41
67
12
69
73
42
27
77
28
85
77
19
15
63
62
35
74
79
8
19
15
99
5
67
5
34
42
1
81
72
72
80
90
98
3
4
66
54
47
66
56
8
82
33
46
5
67
91
12
32
44
42
86
60
75
26
93
5
62
41
90
28
35
21
3
19
67
68
14
67
59
25
4
91
5
15
70
4
74
77
65
19
11
64
46
50
34
25
23
80
39
3
74
70
88
78
19
67
24
64
67
67
4
99
19
67
98
40
50
70
80
46
57
4
4
50
96
88
34
93
67
67
36
90
46
92
48
96
29
28
83
71
19
65
77
30
80
24
86
27
84
0
39
65
3
76
19
36
98
66
91
62
80
67
27
41
45
67
70
93
42
58
15
47
26
12
19
36
80
7
91
58
2
67
79
34
22
54
89
13
4
5
35
67
60
92
28
97
68
79
13
4
95
27
85
0
79
59
89
4
2
4
4
0
21
23
66
12
51
76
51
42
28
34
3
83
28
4
1
37
28
66
94
81
50
61
92
46
64
1
77
32
4
89
64
50
4
11
87
70
92
35
78
19
